{
  "iisSettings": {
    "windowsAuthentication": false,
    "anonymousAuthentication": true,
    "iisExpress": {
      "applicationUrl": "http://localhost:25801",
      "sslPort": 44343
    }
  },
  "$schema": "http://json.schemastore.org/launchsettings.json",
  "profiles": {
    "Fluendo.Pubg.Api": {
      "commandName": "Project",
      "launchUrl": "swagger",
      "environmentVariables": {
        "ASPNETCORE_ENVIRONMENT": "Development"
      },
      "applicationUrl": "http://localhost:5000;https://localhost:5001"
    }
  }
}